Análise de Clusters | Applied Ecology
…
Quero ficar no grupo daquela “boyzinha/boyzinho”

Então, é muito provável que um professor atento à sua turma consiga prever quase com perfeição, como será a composição dos grupos. Mas nunca 100%, tem sempre um erro associado que bagunça a estrutura esperada.

set.seed(999) # vai gerar sempre o mesmo resultado com as funções abaixo
tibble(
  aluno = paste0("aluno", 1:40), # 40 alunos
  amizade = sample(c(1:5), replace=TRUE, size=40), # grupo de amigos ao qual pertence. aqui separei em 5 grupos
  tema = sample(c(1:5), replace=TRUE, size=40),# um dos cinco reinos, sendo 1=planta; 2=animal; 3=fungi;4=protista;5=monera
  bagunca = sample(c(0:1), replace=TRUE, size=40),# ou se é bagunceiro =1 ou não é bagunceiro = 0
  love = sample(c(0:1), replace=TRUE, size=40) # seu love tá lá = 1 ou não está =0
)-> aula
aula

## # A tibble: 40 × 5
##    aluno   amizade  tema bagunca  love
##    <chr>     <int> <int>   <int> <int>
##  1 aluno1        3     2       0     0
##  2 aluno2        4     5       0     0
##  3 aluno3        5     1       1     1
##  4 aluno4        1     2       1     1
##  5 aluno5        1     5       1     1
##  6 aluno6        2     4       1     0
##  7 aluno7        2     5       1     1
##  8 aluno8        3     4       1     0
##  9 aluno9        5     2       0     1
## 10 aluno10       3     3       0     0
## # … with 30 more rows
…
Agora, podemos voltar para nossos dados e ver se os grupos gerados. E à partir daqui, uma infindade de análises exploratórias podem ser feitas.

aula.fct %>% 
  mutate(cluster=grup_alun)

## # A tibble: 40 × 6
##    aluno   amizade tema     bagunca love   cluster
##    <chr>   <chr>   <chr>    <chr>   <chr>    <int>
##  1 aluno1  c       animal   bagunça love         1
##  2 aluno2  d       monera   bagunça love         1
##  3 aluno3  e       planta   cdf     n_love       2
##  4 aluno4  a       animal   cdf     n_love       2
##  5 aluno5  a       monera   cdf     n_love       3
##  6 aluno6  b       protista cdf     love         4
##  7 aluno7  b       monera   cdf     n_love       3
##  8 aluno8  c       protista cdf     love         4
##  9 aluno9  e       animal   bagunça n_love       5
## 10 aluno10 c       fungo    bagunça love         1
## # … with 30 more rows
…
